2 Spatial data manipulation and visualisation – Spatial Data Modelling
…
The line CRS or Coordinate Reference Systems identifies the projection system currently attached to the data. This would be the CRS that will be used if we decided to map the data. The component is incredible important if you intend to combine information from two spatial data frames. Ensure they are on the same CRS! A good idea is to used planar projection systems. Lovelace, Nowosad, and Muenchow (2019) provide a good discussion on the various projection systems.

shp_pro <- read_sf("./data/shp/adm/province/PROVINCIAS_2020.shp") %>% 
  st_simplify(preserveTopology =T,
              dTolerance = 1000) %>%  # 1km
  sf::st_make_valid() 
shp_pro

Simple feature collection with 56 features and 5 fields
Geometry type: MULTIPOLYGON
Dimension:     XY
Bounding box:  xmin: -109.4488 ymin: -55.98085 xmax: -66.42812 ymax: -17.4984
Geodetic CRS:  GCS_SIRGAS-Chile
# A tibble: 56 × 6
   CUT_REG CUT_PROV REGION        PROVINCIA SUPERFICIE                  geometry
 * <chr>   <chr>    <chr>         <chr>          <dbl>        <MULTIPOLYGON [°]>
 1 08      081      Biobío        Concepci…      3469. (((-72.77092 -37.002, -7…
 2 01      014      Tarapacá      Tamarugal     39428. (((-68.53576 -21.06468, …
 3 04      042      Coquimbo      Choapa        10131. (((-70.55491 -31.50954, …
 4 05      054      Valparaíso    Petorca        4589. (((-71.46609 -32.49606, …
 5 10      101      Los Lagos     Llanquih…     14857. (((-73.06627 -41.89869, …
 6 11      114      Aysén del Ge… General …     11758. (((-71.75146 -46.33864, …
 7 05      057      Valparaíso    San Feli…      2636. (((-70.61116 -32.81214, …
 8 12      121      Magallanes y… Magallan…     37193. (((-73.03711 -54.47267, …
 9 13      136      Metropolitan… Talagante       581. (((-70.79251 -33.69482, …
10 15      152      Arica y Pari… Parinaco…      8142. (((-68.91415 -18.89034, …
# ℹ 46 more rows
…
